<?xml version="1.0" standalone="no"?>
<!DOCTYPE svg PUBLIC "-//W3C//DTD SVG 1.1//EN" "http://www.w3.org/Graphics/SVG/1.1/DTD/svg11.dtd" >
<svg xmlns="http://www.w3.org/2000/svg">
<metadata>Generated by IcoMoon</metadata>
<defs>
<font id="icons" horiz-adv-x="1024">
<font-face units-per-em="1024" ascent="960" descent="-64" />
<missing-glyph horiz-adv-x="1024" />
<glyph unicode="&#x20;" horiz-adv-x="512" d="" />
<glyph unicode="&#xe900;" glyph-name="prev" horiz-adv-x="605" d="M476.393-17.594c-21.969 0-43.008 8.937-58.275 24.762l-394.24 404.945c-31.837 32.908-31.837 85.085 0 117.993l394.24 404.945c15.22 15.872 36.166 24.855 58.182 24.948 21.876 0.093 42.915-8.751 58.182-24.483 32.209-32.861 32.396-85.364 0.465-118.458l-336.989-345.972 336.756-345.926c31.977-33.047 31.791-85.644-0.465-118.458-15.174-15.546-36.026-24.343-57.856-24.343z" />
<glyph unicode="&#xe901;" glyph-name="next" horiz-adv-x="634" d="M85.821 960c23.162 0 45.349-9.362 61.44-25.941l413.013-424.229c33.158-34.621 33.158-89.088 0-123.66l-413.013-424.229c-15.945-16.482-37.888-25.844-60.855-25.941-22.918-0.098-44.958 9.118-61.050 25.502-33.548 34.475-33.743 89.332-0.488 124.099l353.036 362.398-353.036 362.398c-33.256 34.767-33.061 89.624 0.488 124.099 15.994 16.238 37.742 25.356 60.465 25.502z" />
<glyph unicode="&#xe902;" glyph-name="eye" horiz-adv-x="1914" d="M0 446.353c212.903 320.557 571.971 513.336 956.772 513.647 384.668 0.356 744.136-191.755 957.663-511.866-183.296-272.117-473.088-454.122-797.83-500.87-466.143-51.2-835.673 121.099-1116.605 499.089zM1325.412 452.141c-0.267 99.105-40.203 193.981-110.859 263.391-70.701 69.454-166.289 107.609-265.35 106.095-95.811-1.247-186.991-41.272-252.883-110.859-144.072-147.501-142.291-383.599 4.007-528.918 68.118-69.677 161.703-108.455 259.117-107.297 98.66 1.336 192.69 41.939 261.343 112.774 68.697 70.879 106.318 166.155 104.626 264.771zM542.72 735.299c-13.802-6.678-27.603-12.911-40.96-19.59-125.774-64.022-237.167-153.155-327.235-261.788-1.781-1.336-2.849-3.339-2.849-5.565s1.069-4.274 2.849-5.565c96.167-116.469 216.91-210.232 353.503-274.699 4.897-2.226 9.795-4.452 14.247-6.233-113.397 174.392-113.219 399.226 0.445 573.44zM1372.605 160.968c13.802 6.678 27.603 12.911 40.96 20.035 125.685 64.022 236.989 152.932 327.235 261.343 1.781 1.514 2.849 3.784 2.76 6.144-0.089 2.404-1.247 4.586-3.206 5.921-89.622 108.099-200.348 196.786-325.454 260.452-13.802 7.123-28.049 13.802-42.296 20.48 114.198-174.392 114.198-399.894 0-574.33zM712.348 522.93c24.175-54.317 82.989-84.324 141.134-72.125 49.642 8.147 89.311 45.724 100.174 94.831 8.326 29.518 5.476 61.084-8.014 88.598-12.689 27.603-34.549 49.953-61.885 63.221 107.743 33.926 224.835-8.147 286.275-102.845 68.118-104.092 55.43-241.441-30.72-331.242-86.283-88.064-223.366-101.421-325.009-31.61-93.629 64.557-134.901 182.272-101.955 291.172z" />
<glyph unicode="&#xe903;" glyph-name="person" horiz-adv-x="1079" d="M705.28-55.954c-109.166 0-218.331 0.073-327.497 0.183-25.051 0-50.139 1.28-75.227 1.646-24.137 0.366-48.311 0.366-72.503 0-64.914-0.366-129.829-0.951-194.743-1.829-3.657-0.768-7.497 0.037-10.496 2.249-3.017 2.194-4.937 5.577-5.303 9.289-6.711 31.451-14.811 62.537-18.542 94.903-6.254 54.857 19.749 90.88 63.013 117.029 26.094 14.702 52.955 28.014 80.457 39.863 46.373 21.76 92.855 43.52 139.447 64.914 32.914 15.177 66.194 29.806 99.383 44.434 5.065 1.536 8.375 6.437 7.863 11.703-0.457 17.189 0 34.194-0.329 51.2-0.091 4.571-1.463 9.015-4.023 12.8-16.018 21.577-28.379 45.586-36.571 71.131-6.309 19.566-11.52 39.314-17.664 58.88-1.335 3.749-3.657 7.040-6.766 9.509-12.507 10.112-20.114 25.088-20.809 41.143-2.487 27.611-5.486 55.223-8.32 82.834-3.913 17.042 1.755 34.834 14.811 46.446 2.158 2.633 3.291 5.961 3.109 9.326-0.366 27.429 0.731 54.821 3.2 82.103 5.541 35.95 22.162 69.248 47.543 95.269 35.694 38.089 83.749 62.263 135.625 68.187 45.678 6.802 92.343 0.859 134.875-17.189 50.432-20.297 90.514-60.16 111.122-110.446 8.923-22.309 13.605-46.135 13.824-70.217 0.366-15.909-0.183-31.817 0.366-47.726 0.128-4.114 1.829-8.046 4.754-10.971 13.568-11.429 19.895-29.349 16.53-46.811-4.608-30.171-8.722-60.526-13.714-90.697-2.231-11.703-8.448-22.309-17.609-29.989-5.083-5.339-8.649-11.977-10.313-19.2-6.985-32.366-18.194-63.744-33.335-93.257-5.851-9.874-13.531-18.651-19.749-28.343-3.109-4.297-5.065-9.326-5.669-14.629-0.475-16.823 0.457-33.646 0.439-50.286-0.11-5.029 3.109-9.582 7.899-11.154 36.754-17.189 73.454-34.743 110.263-51.931l147.163-68.571c32.841-12.837 62.793-32.11 88.101-56.686 18.834-19.2 29.257-45.111 29.111-72.046-0.914-21.321-3.218-42.569-6.821-63.634-2.322-15.909-6.619-31.634-9.381-47.543 0-3.566-1.591-6.949-4.334-9.271-2.743-2.286-6.4-3.237-9.911-2.597-109.714 0.366-219.429 0.183-329.143 0.183v-0.183h-0.091z" />
<glyph unicode="&#xe904;" glyph-name="prize" horiz-adv-x="859" d="M257.975 681.143c16.091 9.143 30.171 16.823 43.794 25.051 6.857 5.12 16.274 4.937 22.985-0.366 12.434-8.411 25.819-15.36 40.704-23.954 0.622 6.217 1.408 10.423 1.426 14.629v244.297c0 18.469 0.494 19.017 18.834 19.017h291.109c16.64 0 17.865-1.28 17.865-18.286 0-90.697 1.006-181.577-0.293-272.274 0.603-83.602-38.327-162.597-104.997-213.029-28.709-22.491-61.934-38.473-97.408-46.811-5.303-0.549-9.289-5.12-9.143-10.423-0.183-2.56-0.219-5.303-0.219-7.863 0-40.229 0.219-80.457 0-120.686-0.658-13.093 4.608-25.783 14.336-34.56 14.629-12.8 30.354-24.503 45.458-36.937 3.657-3.109 6.766-6.766 10.149-10.057-4.571-1.701-9.326-2.816-14.171-3.291-70.034-0.366-140.069-0.183-210.139-0.183-5.12-0.219-10.277-0.146-15.397 0.183-2.999 0.494-5.906 1.408-8.594 2.743 1.353 2.926 3.145 5.632 5.303 8.046 13.861 10.789 28.16 21.211 41.966 32.183 14.263 10.331 22.382 27.191 21.522 44.8-0.914 40.594-0.475 81.189-0.11 121.783 0.603 3.438-0.219 6.949-2.304 9.765-2.066 2.816-5.211 4.626-8.667 5.047-52.48 13.275-99.566 42.313-134.985 83.2-25.911 29.989-44.855 65.335-55.497 103.497-6.949 26.789-10.13 54.437-9.362 82.103-0.128 90.149-0.274 180.297-0.494 270.446-0.658 2.871 0.183 5.851 2.194 8.009 2.048 2.121 5.010 3.109 7.918 2.597h74.24c10.185 0.183 10.971-6.4 10.971-14.263-0.091-72.96-0.091-146.048 0-219.246v-32.731c0-3.474 0.512-6.766 1.006-12.434zM427.41 166.034h197.486c24.686 0 32.914-8.229 32.914-32.914v-99.474c0-16.457-1.829-18.103-18.286-18.103-87.040 0-174.080-0.183-261.157 0-23.771 0-47.433 1.829-71.131 1.646-30.482 0-60.946-1.097-91.429-1.829-14.263-0.183-16.585 2.011-16.677 15.726-0.238 35.474-0.457 70.766-0.475 106.057-1.829 8.137 0.622 16.64 6.546 22.491 5.925 5.888 14.446 8.302 22.565 6.4h199.643zM67.419 892.343c18.286 0 36.571-0.183 54.857 0.183 3.2 0.731 6.583-0.256 8.887-2.597 2.322-2.341 3.291-5.705 2.56-8.923-0.329-14.811-0.402-29.623 0-44.434 0.841-3.328-0.073-6.857-2.469-9.326-2.377-2.469-5.888-3.511-9.234-2.743-13.477 0.549-26.99 0-40.485 0.183-2.779 0.731-5.723-0.183-7.625-2.267-1.92-2.103-2.523-5.12-1.536-7.79 5.851-55.881 25.527-109.422 57.289-155.794 2.834-4.937 4.699-10.423 5.486-16.091 5.486-24.137 10.386-48.274 15.781-72.411 0.914-3.84 3.291-7.497 4.443-11.52 0.293-2.377 0.293-4.754 0-7.131-2.432-0.439-4.901-0.329-7.241 0.366-9.947 5.906-19.529 12.379-28.709 19.383-40.869 33.774-71.607 78.208-88.777 128.366-17.189 45.166-26.898 92.855-28.745 141.166-0.439 13.531-1.134 27.063-1.719 40.411-0.622 3.109 0.366 6.29 2.56 8.503 2.267 2.194 5.486 3.145 8.594 2.469h56.064zM699.136 548.023c-0.183 3.566 0.128 7.131 0.859 10.606 10.423 27.703 17.481 56.558 21.065 85.943 0.786 5.669 2.798 11.099 5.888 15.909 29.44 43.191 48.219 92.763 54.729 144.64 2.926 19.383 2.743 19.566-17.445 19.566h-32.805c-2.743-0.512-5.559 0.366-7.534 2.341s-2.871 4.791-2.377 7.534c0.128 16.091 0.128 32.183 0 48.274-0.457 2.597 0.366 5.248 2.194 7.131 1.865 1.902 4.498 2.779 7.131 2.377h114.651c2.779 0.311 5.486-0.731 7.369-2.798s2.615-4.937 2.011-7.625c0.622-31.451-1.719-62.939-6.949-93.989-6.839-44.562-20.663-87.771-40.96-128-20.699-42.057-52.352-77.751-91.611-103.314-4.389-2.926-9.289-4.937-16.238-8.594h0.037zM240.165-13.531h106.88c105.326 0.549 210.688 1.28 316.032 1.646 6.985-0.091 13.824-1.92 19.931-5.303 8.357-5.083 11.648-15.543 7.717-24.503-2.926-9.234-11.922-15.122-21.541-14.080-40.411 0.183-80.859-0.366-121.289-0.183-32.091 0.183-64.183 0.914-96.274 1.463-3.566 0-7.095 0.183-10.606 0.183-67.474 0.183-134.985 0.183-202.459 0-18.56 0-37.157-0.914-55.698-0.183-5.394 0.055-10.514 2.286-14.263 6.162-3.694 3.895-5.669 9.143-5.486 14.501-0.146 5.723 2.011 11.264 5.961 15.36 3.968 4.151 9.435 6.51 15.177 6.583 18.597 0.549 37.248 0 55.881 0v-1.646z" />
<glyph unicode="&#xe905;" glyph-name="tennis" horiz-adv-x="1042" d="M665.348 436.592c-16.851-22.744-34.852-44.625-53.895-65.572-20.354-18.594-41.643-36.163-63.775-52.637 7.725-2.156 15.091-4.132 22.636-5.928 41.715-9.306 81.597-25.456 118.029-47.787 7.545-4.851 14.552-10.42 21.738-15.989 2.156-1.078 3.629-3.234 3.844-5.623 0.216-2.407-0.826-4.761-2.767-6.234-0.305-0.126-0.575-0.395-0.719-0.719-17.606-20.66-17.785-20.839-40.241-5.928-37.978 23.714-80.088 40.062-124.138 48.146-16.348 3.593-15.989 3.234-17.426 19.761s-3.054 33.415-5.749 49.942c-2.587 8.803 1.617 18.18 9.881 22.097 76.89 49.224 116.413 119.107 111.203 211.806-3.773 50.445-19.474 99.274-45.811 142.462-27.882 50.122-65.428 94.208-110.484 129.707-53.859 44.337-123.814 64.135-192.943 54.613-42.128-6.413-81.651-24.378-114.167-51.919-41.732-32.409-73.423-76.028-91.37-125.754-17.336-50.661-16.528-105.777 2.282-155.935 6.413-17.965 6.701-17.785-9.306-27.127-5.749-3.234-11.318-6.827-16.887-10.599-5.282-3.593-9.198-3.234-11.857 3.054-25.025 55.224-31.331 117.131-17.965 176.236 25.151 103.837 89.825 174.978 183.781 220.070 43.331 19.905 91.37 27.253 138.653 21.199 73.962-8.497 142.641-42.397 194.38-95.933 53.571-50.984 94.675-113.628 120.185-183.062 14.049-37.187 20.839-76.674 19.941-116.413-1.078-56.841 7.006-113.484 23.893-167.792 8.893-34.133 24.396-66.165 45.631-94.316 1.922-1.671 2.964-4.132 2.874-6.683-0.126-2.515-1.365-4.904-3.413-6.431-1.796-1.617-3.234-3.593-4.851-5.030-18.504-16.528-13.833-20.839-31.439 3.413-24.127 35.624-41.499 75.399-51.2 117.311-2.803 11.138-5.677 22.276-8.551 33.594zM380.066 315.868c0.359-62.698-38.086-105.274-93.597-110.305-40.87-1.725-80.195-16.097-112.532-41.14-21.791-19.043-38.625-43.080-49.080-70.063-4.437-10.24-6.557-11.138-16.168-4.851-38.445 24.181-69.021 59.015-88.028 100.244-5.749 12.575-5.21 14.192 7.905 17.785 41.966 10.384 78.237 36.756 101.053 73.476 12.791 21.378 21.773 44.733 26.588 69.165 6.916 47.284 46.601 82.872 94.352 84.615 29.013 1.689 57.578-7.833 79.764-26.588 28.977-22.276 47.068-55.871 49.763-92.34zM0.054 289.28c-0.413 113.089 81.076 209.83 192.584 228.604 111.49 18.827 220.25-45.811 256.934-152.792 22.815-64.907 15.809-136.587-19.115-195.853-34.96-59.284-94.316-100.065-162.133-111.526-31.672-5.389-64.135-3.773-95.124 4.671-7.473 1.796-9.521 5.21-6.827 12.036 11.857 35.571 39.972 63.362 75.704 74.734 17.246 4.94 34.96 8.264 52.817 9.881 65.392 7.24 117.886 57.344 128.090 122.341 11.084 64.135-15.683 128.934-68.806 166.535-60.542 48.272-147.492 44.122-203.183-9.701-21.863-22.995-36.289-52.026-41.427-83.357-7.671-49.404-44.014-89.519-92.412-102.041-12.899-3.593-15.27-2.156-16.168 11.318-0.359 4.312-0.719 8.623-0.88 13.114-0.18 3.952-0.108 8.084-0.108 12.036zM542.145 439.107c-34.672 25.564-67.584 53.482-98.448 83.537-1.527-0.826-2.964-1.796-4.312-2.874-7.186-8.084-13.474-5.389-20.3 0.719-10.24 9.162-10.24 8.803-3.054 20.839 1.078 3.449 0.413 7.222-1.796 10.060-18.684 19.043-37.906 37.726-56.769 56.769-1.347 2.156-3.683 3.449-6.198 3.449s-4.851-1.311-6.216-3.449c-6.827-6.827-13.833-13.474-20.839-20.121-11.174-11.677-29.714-12.18-41.499-1.078 9.881 10.599 19.402 21.019 29.283 31.259 19.043 19.761 20.121 15.45 0.539 35.032-13.833 14.013-27.127 28.564-40.601 42.936-8.982 9.521-11.138 9.701-20.3 0.898-17.067-16.348-33.954-33.055-51.38-49.224-2.982-1.617-4.797-4.779-4.725-8.192s2.030-6.467 5.102-7.994c10.959-9.701 21.558-20.121 32.157-30.181 3.054-3.054 5.749-6.288 8.803-9.521-14.192-7.042-31.205-4.994-43.295 5.21-6.288 6.827-13.025 13.474-19.222 20.3-1.329 2.156-3.665 3.521-6.198 3.593-2.515 0.072-4.94-1.132-6.378-3.234-10.779-8.982-21.809-17.606-33.055-26.049-3.126-1.491-6.431-2.569-9.827-3.234-0.755 1.078-1.473 2.156-2.21 3.054 4.276 6.647 8.228 13.474 12.899 19.582 5.569 7.545 11.372 14.911 17.749 21.917 2.228 1.796 3.557 4.491 3.593 7.366 0 2.838-1.258 5.569-3.485 7.366-10.779 12.755-21.306 25.869-31.618 38.984-2.407 3.665-4.527 7.509-6.288 11.498 0.719 0.719 1.473 1.527 2.156 2.335 3.126-1.114 6.144-2.569 8.982-4.312 13.617-10.599 27.199-21.558 40.457-32.696 1.653-2.156 4.24-3.341 6.934-3.198s5.156 1.617 6.539 3.916c18.252 19.582 36.756 38.804 55.242 58.206 2.21 1.832 3.413 4.599 3.288 7.455-0.144 2.874-1.617 5.497-4.006 7.096-18.324 20.839-36.109 42.038-53.895 63.416-2.156 3.234-3.952 6.647-5.389 10.24 1.024 0.898 2.048 1.796 3.054 2.874 5.479-3.27 10.743-6.881 15.809-10.779 18.324-15.629 36.469-31.618 54.254-47.607 9.701-8.803 10.060-9.162 19.222-0.18 17.785 17.246 35.391 34.493 53.535 51.38 2.928 1.617 4.851 4.635 5.030 7.976 0.234 3.324-1.258 6.557-3.952 8.533-10.779 12.396-20.839 25.51-30.72 38.445-2.192 3.324-4.006 6.881-5.389 10.599 1.078 0.898 2.156 1.976 3.234 3.054 9.521-7.006 19.043-13.653 28.385-20.66 6.288-5.030 12.036-10.599 17.965-15.809 9.881-8.803 11.138-8.623 21.019-0.359 10.24 8.444 20.839 16.528 31.798 24.432 2.767 1.204 5.749 1.796 8.803 1.796-0.18-3.126-0.826-6.234-1.976-9.162-8.084-11.318-16.528-22.636-25.51-33.415-2.282-1.761-3.557-4.527-3.467-7.402 0.108-2.874 1.617-5.533 4.006-7.15 20.839-19.761 41.319-39.882 61.979-59.823 1.563-2.156 4.060-3.467 6.737-3.539 2.659-0.072 5.21 1.114 6.899 3.18 15.091 12.935 30.361 25.331 45.631 37.726 3.18 2.066 6.557 3.809 10.060 5.21l2.695-2.156c-1.078-3.593-2.641-7.042-4.671-10.24-12.036-15.27-24.073-30.361-36.648-45.092-2.515-1.976-3.952-5.030-3.952-8.21 0.054-3.198 1.581-6.216 4.132-8.138 19.761-19.941 39.343-40.241 58.566-60.542 1.491-2.605 4.186-4.312 7.186-4.527 2.982-0.216 5.892 1.078 7.725 3.449 10.24 8.982 21.378 17.067 32.337 25.151 1.078 2.156 3.413 3.377 5.803 2.964 2.335-0.431 4.168-2.371 4.401-4.779 0.234-2.389-1.15-4.671-3.377-5.569-7.905-11.138-15.989-22.276-24.792-32.696-2.605-2.066-4.042-5.264-3.898-8.623 0.144-3.306 1.85-6.36 4.599-8.264 16.707-18.684 32.516-38.265 48.505-57.488 2.389-3.467 4.491-7.132 6.288-10.959-0.539-0.898-1.258-1.796-1.796-2.695-3.629 1.024-7.078 2.605-10.24 4.671-19.222 15.629-38.265 31.259-56.769 47.607-6.827 6.108-11.138 7.905-17.965 0.18-16.348-18.145-33.055-35.93-50.302-53.176-2.749-1.904-4.383-5.084-4.348-8.444 0.036-3.413 1.725-6.539 4.545-8.444 22.097-24.971 44.014-50.302 65.931-75.632 4.132-4.851 7.366-10.42 11.138-15.629-1.437-1.258-2.695-2.515-3.952-3.773zM346.687 792.477c-1.976-0.772-3.862-1.796-5.569-3.054-18.504-19.402-36.828-38.625-55.152-58.206-1.868-1.491-2.928-3.773-2.874-6.198 0.090-2.389 1.258-4.617 3.234-6.018 19.222-18.504 38.373-37.116 57.488-55.871 1.581-1.976 4.006-3.126 6.557-3.054 2.515 0.072 4.904 1.347 6.378 3.413 17.785 17.606 35.75 34.852 53.715 52.278 1.85 1.222 3 3.27 3.054 5.479 0.090 2.228-0.934 4.312-2.695 5.659-19.222 20.3-38.445 40.78-57.847 61.081-1.922 1.743-4.024 3.234-6.288 4.491zM506.395 630.254c-1.293 2.192-2.803 4.24-4.491 6.108-19.761 19.761-39.882 39.343-59.644 59.284-1.671 2.156-4.312 3.341-7.042 3.126-2.695-0.234-5.138-1.796-6.467-4.222-16.348-17.067-32.481-34.493-49.188-51.38-2.605-1.581-4.222-4.383-4.312-7.437-0.054-3.054 1.437-5.928 3.952-7.635 18.684-19.043 37.241-38.193 55.691-57.488 5.21-5.569 8.623-2.335 12.575 1.437 17.965 17.426 35.93 34.672 53.895 52.098 1.796 1.922 3.485 3.952 5.030 6.108zM1033.306 44.059c-2.264-4.312-4.922-8.39-7.905-12.216-24.792-25.331-49.763-50.481-74.914-75.453-3.126-4.581-8.3-7.33-13.833-7.33-5.569 0-10.725 2.749-13.833 7.33-23.085 19.079-41.050 43.583-52.278 71.321-4.779 10.995-11.893 20.803-20.839 28.744-38.086 39.343-76.89 77.968-115.694 116.772-3.126 2.012-4.994 5.461-4.994 9.162 0 3.719 1.85 7.186 4.958 9.162 19.402 18.863 38.517 38.086 57.308 57.667 1.707 3.090 4.922 5.030 8.444 5.102 3.521 0.054 6.827-1.743 8.623-4.761 37.547-38.445 75.632-76.351 113.359-114.796 12.45-12.611 27.379-22.528 43.834-29.103 10.743-4.527 20.732-10.653 29.642-18.145 10.599-9.162 20.66-19.007 30.001-29.462 3.18-4.383 5.875-9.072 8.084-14.013z" />
<glyph unicode="&#xe906;" glyph-name="fb" horiz-adv-x="546" d="M546.133 939.52c-56.525 12.698-114.142 19.524-172.032 20.48-185.003 0-258.048-81.237-258.048-225.963v-105.813h-116.053v-171.349h116.053v-520.192h225.28v520.192h163.84l15.701 171.349h-179.541v82.603c0 46.421 4.096 75.093 76.459 75.093 33.451-0.546 66.765-4.096 99.669-10.24l28.672 163.84z" />
<glyph unicode="&#xe907;" glyph-name="ok" horiz-adv-x="593" d="M169.876 255.434c-21.019 7.006-42.577 12.935-63.057 22.097-24.468 10.617-48.236 22.851-71.141 36.648-16.977 10.24-29.103 26.786-33.684 46.080s-1.186 39.613 9.432 56.32c9.809 16.438 25.977 28.133 44.733 32.229 18.594 4.042 38.157 0.216 53.895-10.671 97.549-63.973 223.879-63.757 321.213 0.539 23.175 16.168 53.895 16.168 77.069 0 24.253-15.468 36.541-44.032 31.259-72.219-2.856-22.905-16.492-43.116-36.648-54.434-34.493-21.666-71.842-38.265-111.023-49.583-7.545-2.156-14.552-4.312-23.714-7.006 3.395-4.312 7.006-8.461 10.779-12.396 39.882-41.499 78.686-84.076 119.646-123.958 30.397-29.103 32.067-77.069 3.773-108.328-14.013-14.013-33.253-21.45-53.032-20.48-19.833 0.862-38.265 10.078-50.984 25.331-39.343 40.96-78.686 81.381-117.491 122.88-8.084 8.084-12.396 8.623-21.019 0-39.882-42.577-80.842-84.615-121.263-126.653-20.48-22.312-53.14-28.456-80.303-15.091-27.702 13.797-43.655 43.655-39.882 74.375 1.886 17.354 9.701 33.576 22.097 45.811 38.804 40.421 77.608 80.842 116.952 121.263 4.958 4.527 10.402 8.515 16.168 11.857l-3.773 5.389zM271.198 959.838c102.077 3.665 196.177-54.973 237.784-148.211 41.661-93.238 22.528-202.375-48.29-275.941-70.872-73.512-179.254-96.687-274.001-58.584-94.693 38.157-156.834 129.994-156.941 232.125-1.617 65.374 23.013 128.647 68.446 175.697 45.164 47.212 107.574 74.159 172.894 74.968zM171.493 709.767c-0.808-27.055 9.27-53.356 28.025-72.758 18.863-19.51 44.733-30.558 71.68-30.72 55.512 2.533 99.166 48.236 99.166 103.747s-43.655 101.214-99.166 103.747c-27.055-0.269-52.925-11.48-71.68-31.043-18.755-19.51-28.834-45.811-28.025-72.92z" />
<glyph unicode="&#xe908;" glyph-name="vk" horiz-adv-x="1862" d="M1033.868 727.552l-2.793-107.985c-0.652-23.738 1.583-47.476 6.516-70.749 3.258-13.033 10.054-24.855 19.549-34.444 9.309-11.171 25.507-13.964 38.167-6.516 12.102 6.982 23.738 15.081 34.444 24.204 30.255 30.255 57.716 63.302 81.92 98.676 53.713 76.521 98.956 158.534 134.982 244.829 2.793 6.237 6.237 12.102 10.24 17.687 9.123 15.174 26.065 23.831 43.753 22.342h86.575c60.509 0.931 120.087 0.931 180.596 0.931 20.48 0.931 40.96 0.186 61.44-1.862 12.847 0.931 25.135-4.841 32.954-15.174 7.727-10.24 9.681-23.924 5.213-36.026-5.399-21.969-14.15-43.008-26.065-62.371-29.789-50.921-63.581-99.142-101.469-144.291-40.029-50.269-80.989-98.676-121.949-148.945-11.357-15.081-21.597-30.906-30.72-47.476-13.033-20.945-10.24-48.035 6.516-66.095 18.339-21.876 38.912-41.891 61.44-59.578 51.945-43.939 101.469-90.857 148.015-140.567 20.294-22.156 38.167-46.545 53.062-72.611 4.655-8.192 8.378-16.943 11.171-26.065 5.585-18.897-2.979-39.284-20.48-48.407-18.897-11.171-40.495-16.943-62.371-16.756-74.473-1.862-149.876-1.862-224.349-3.724-24.204-1.396-48.407 1.396-71.68 8.378-36.119 11.916-68.887 32.023-95.884 58.647-26.996 26.065-53.062 53.993-79.127 80.058-19.549 18.618-39.098 36.305-58.647 53.062-6.889 5.213-14.429 9.588-22.342 13.033-18.991 9.309-41.891 5.585-56.785-9.309-11.45-11.171-20.108-24.855-25.135-40.029-9.309-25.321-14.708-52.131-15.825-79.127-0.931-12.102-0.931-24.204-2.793-36.305-2.327-19.177-16.477-34.909-35.375-39.098-11.543-3.258-23.459-5.12-35.375-5.585-34.444-0.931-68.887-0.931-102.4 0-66.467 0.745-132.375 13.033-194.56 36.305-96.628 34.444-183.668 91.229-254.138 165.702-60.23 62.371-114.781 129.955-162.909 202.007-90.484 133.585-170.356 273.967-239.244 419.84-3.537 8.099-5.958 16.477-7.447 25.135-2.793 13.684 5.958 26.996 19.549 29.789 13.777 4.655 28.3 7.168 42.822 7.447 70.749 0.931 141.498 0.931 212.247 1.862h21.411c34.444 2.607 66.746-17.315 80.058-49.338 45.801-105.007 104.262-204.148 174.080-295.098 15.546-18.804 32.303-36.492 50.269-53.062 8.006-7.447 17.501-13.219 27.927-16.756 16.012-6.237 34.257-0.465 43.753 13.964 8.378 13.964 13.964 29.51 16.756 45.615 6.889 37.423 9.681 75.59 8.378 113.571-0.931 38.167-3.724 77.265-6.516 116.364-0.931 10.799-3.072 21.411-6.516 31.651-9.030 31.465-34.909 55.203-67.025 61.44l-22.342 5.585c-8.378 0.931-10.24 3.724-6.516 11.171 9.309 14.615 22.342 26.252 38.167 33.513 18.991 9.123 39.471 14.429 60.509 15.825 63.302 6.982 127.162 8.844 190.836 5.585 32.209 0.372 64.419-3.072 95.884-10.24 33.047-3.724 58.647-30.906 60.509-64.233 3.072-32.116 3.351-64.512 0.931-96.815 0-19.549-1.862-40.029-2.793-59.578h0.931z" />
<glyph unicode="&#xe909;" glyph-name="marker" horiz-adv-x="887" d="M409.6 960c62.942-0.546 122.88-13.107 179.2-39.049 74.889-34.543 133.598-85.743 175.65-153.6 29.355-47.377 46.421-98.577 52.907-153.054 5.325-44.373-0.819-87.381-16.179-129.707-10.513-29.013-23.211-57.344-37.751-84.651-25.532-47.787-53.931-94.208-86.016-138.581-32.768-45.056-66.423-89.702-100.557-133.803-20.89-27.102-43.145-53.248-65.536-79.053-31.607-36.318-63.966-72.021-96.051-107.861-5.461-6.144-5.666-6.144-11.264 0-31.539 35.226-63.078 70.315-94.345 105.677-14.199 16.043-28.194 32.29-41.643 48.879-43.691 54.272-86.835 109.090-126.293 166.229-27.853 40.141-54.613 80.759-77.414 123.563-14.473 27.511-28.535 55.501-40.277 84.173-13.79 33.246-23.757 67.721-24.030 103.765-0.341 43.008 6.554 85.060 21.504 125.611 30.037 81.92 83.422 147.183 159.607 195.652 55.774 35.499 117.419 56.388 184.457 62.942 14.677 1.502 29.355 2.048 44.032 2.867zM614.741 575.659c-0.478 105.131-90.249 191.829-204.937 191.829-115.029-0.137-204.8-86.221-205.141-192.239-0.205-105.609 90.317-191.625 203.162-192.512 116.941-0.819 206.985 87.791 206.848 192.853z" />
<glyph unicode="&#xe90a;" glyph-name="phone" horiz-adv-x="1182" d="M336.975 575.134c11.658-19.692 21.898-38.597 33.556-56.399 20.48-31.271 40.172-63.015 62.858-92.633 35.604-46.159 75.934-88.064 121.698-124.455 49.625-39.7 102.794-74.043 157.775-105.551 4.726-2.599 6.695-0.315 9.452 2.521 31.508 31.665 63.173 63.252 94.838 94.838 25.679 25.679 57.895 32.295 89.797 17.329 8.271-3.938 15.911-9.61 22.37-15.99 50.018-49.625 99.564-99.564 149.425-149.346 16.384-16.542 24.891-35.998 24.103-59.077-0.473-16.778-5.278-32.689-16.778-44.741-24.734-25.758-49.782-51.2-76.091-75.461-20.716-19.298-47.577-27.175-75.146-28.672-31.271-1.575-62.858-2.599-93.972 0.236-66.324 5.908-129.969 23.631-191.173 49.861-127.055 54.351-233.551 137.531-327.68 237.41-27.412 29.145-53.248 59.865-77.824 91.372-20.165 25.758-38.597 52.933-55.69 80.817-42.772 70.026-76.17 143.99-94.444 224.335-13.233 58.053-19.22 116.578-12.524 175.892 3.545 31.823 16.148 59.234 39.148 81.762 18.905 18.59 37.415 37.652 56.241 56.32 33.083 32.768 80.108 32.453 112.876-0.473 48.443-48.679 96.492-97.989 145.959-145.723 35.289-34.186 34.028-85.543 0.236-117.366-31.35-29.538-61.046-60.652-91.53-91.136-2.127-2.048-4.726-3.623-7.562-5.75z" />
<glyph unicode="&#xe90b;" glyph-name="check" horiz-adv-x="1004" d="M494.838-43.622c-43.663 2.171-83.866 5.939-123.494 16.036-101.868 26.010-186.307 79.258-254.628 158.863-36.659 42.701-65.27 90.317-84.296 143.032-10.568 29.245-17.101 60.047-24.166 90.481-8.253 35.594-9.503 72.028-7.373 108.339 2.294 38.298 8.52 76.063 19.395 113.152 23.060 78.705 63.611 146.842 120.32 205.619 28.774 29.86 60.969 55.665 96.625 76.493 20.726 12.083 43.991 19.866 64.983 31.539 22.385 12.493 46.49 20.726 70.943 24.576 37.13 5.857 73.728 17.818 112.23 13.926 6.595-0.696 13.476 1.495 20.152 1.024 18.842-1.27 38.441-0.532 56.32-5.612 26.522-7.516 54.026-9.38 80.384-18.964 22.671-8.253 45.67-15.892 66.97-27.034s40.96-25.395 61.809-37.54c27.443-15.974 50.442-37.274 72.233-59.802 48.947-50.586 85.811-108.872 109.711-175.37 11.674-32.502 20.644-65.741 24.719-99.799 3.891-32.563 8.131-65.434 3.174-98.509-4.096-27.32-5.325-55.337-12.124-81.961-7.844-30.761-18.555-61.133-31.293-90.235-32.215-73.523-81.572-134.083-144.589-183.624-43.418-34.14-91.402-60.109-143.565-77.681-37.601-12.616-76.186-21.77-116.122-23.593-13.804-0.614-27.566-2.376-38.359-3.338zM735.846 697.201c-2.724-2.109-4.547-3.277-6.042-4.751-36.516-36.516-73.011-73.114-109.527-109.629-58.040-58.081-116.122-116.122-174.080-174.326-4.772-4.751-8.028-4.977-12.902-0.041-21.565 21.975-43.459 43.622-65.229 65.434-32.42 32.44-64.881 64.881-97.198 97.444-3.789 3.83-7.004 6.001-11.551 1.434-32.154-32.215-64.307-64.43-96.543-96.543-3.891-3.891-3.932-6.615 0.123-10.609 19.497-19.251 38.646-38.851 58.020-58.225 70.656-70.799 141.455-141.517 211.968-212.439 5.53-5.53 8.724-5.386 14.008 0 24.781 25.252 49.848 50.176 74.854 75.203 104.53 104.612 209.060 209.244 313.754 313.754 5.12 5.079 5.325 8.499 0.123 13.558-15.442 14.991-30.515 30.372-45.732 45.629-17.818 17.818-35.635 35.676-54.026 54.149z" />
<glyph unicode="&#xe90c;" glyph-name="close" horiz-adv-x="1097" d="M717.093 448l352.768-362.35c33.499-34.377 33.353-89.966-0.366-124.123-16.823-17.115-38.766-25.6-60.709-25.6-22.089 0-44.178 8.631-61.001 25.893l-364.837 374.711-363.227-374.638c-33.353-34.377-87.771-34.523-121.271-0.366-33.646 34.085-33.792 89.6-0.366 124.050l351.525 362.423-351.598 362.35c-33.28 34.377-33.061 89.966 0.512 124.050 16.75 17.189 38.473 25.6 60.343 25.6 21.943 0 44.032-8.631 60.855-25.893l363.227-374.638 364.983 374.638c33.499 34.377 87.918 34.523 121.71 0.366 33.646-34.085 33.865-89.6 0.366-124.050l-352.914-362.423z" />
</font></defs></svg>